What the Package Does (One Line, Title Case) • OmopMultistate
…
If we are interested in summarising the probabilities over time we can use the summariseMultistateProbabilities function:

result <- summariseMultistateProbabilities(
  cohort = cdm$my_study,
  trans = trans,
  stateHierarchy = stateHierarchy
)

When run interactively, these functions can print informational (ℹ) messages about records that were excluded. For example, a person who has a death record but never enters an eligible initial state cannot contribute to this analysis. These messages describe the input data; they are not R warnings.

tidy(result)
#> # A tibble: 9,552 × 9
#>    cdm_name  initial_state variable_name      variable_level probability
#>    <chr>     <chr>         <chr>              <chr>                <dbl>
#>  1 synpuf-1k overall       prob_acetaminophen 0                    1    
#>  2 synpuf-1k overall       prob_untreated     0                    0
#>  3 synpuf-1k overall       prob_death_cohort  0                    0
#>  4 synpuf-1k overall       prob_acetaminophen 10                   0.770
#>  5 synpuf-1k overall       prob_untreated     10                   0.230
#>  6 synpuf-1k overall       prob_death_cohort  10                   0
#>  7 synpuf-1k overall       prob_acetaminophen 12                   0.772
#>  8 synpuf-1k overall       prob_untreated     12                   0.228
#>  9 synpuf-1k overall       prob_death_cohort  12                   0
#> 10 synpuf-1k overall       prob_acetaminophen 13                   0.774
#> # ℹ 9,542 more rows
#> # ℹ 4 more variables: cohort_table_name <chr>, follow_up_days <chr>,
#> #   state_hierarchy <chr>, state_step <chr>
…
